key,it,fr
our-story-title,"La nostra storia","Notre Histoire"
our-story-content,"Vi aspettiamo sabato 1 settembre dalle ore 15:00 per festeggiare la nostra unione. 
La cerimonia, la cena e la festa si terranno nel villaggio di <a class=""link"" href=""https://goo.gl/maps/o5bRkUuZpvE2"" target=""_blank"">Les Mosses</a>, sulle Alpi Vodesi, all'Espace Nordique.

Se non volete tornare a casa tardi e/o con qualche bicchiere di troppo sulle spalle, ecco due opzioni per passare la notte a qualche minuto di cammino:

1. Opzione “montanara” (ve la offriamo noi): per chi è disposto eventualmente a condividere una stanza ed il bagno con amici, prevediamo dei posti letto in un grande chalet (<a class=""link"" target=""_blank"" href=""resources/img/stanza.jpg"">esempio</a>).

2. Opzione “grande lusso” (la pagate voi <span>&#9786;</span> ): chi preferisse avere più  privacy e comodità può prenotare una stanza in autonomia, ad esempio nell’hotel del paese: http://www.relaisalpin.ch/ra/fr/  

Maggiori informazioni e dettagli nei prossimi mesi tramite questo sito.

Per favore rispondete tramite la sezione <a class=""link"" href=""./rsvp.html"">RSVP</a> in cima a questa pagina (fino al 31 marzo).","Nous vous attendons le samedi 1er septembre dès 15h00 pour fêter notre union. 
La cérémonie, le repas et la fête auront lieu aux <a class=""link"" href=""https://goo.gl/maps/o5bRkUuZpvE2"" target=""_blank"">Mosses</a> dans la salle de l'Espace Nordique.

Nous n’aimerions pas que nos invités reprennent la route depuis ce lieu éloigné avec quelques verres dans le nez ou trop fatigués d’avoir longtemps dansé! 

Voici deux propositions pour passer la nuit à quelques minutes à pied de l'Espace Nordique :

1. Option « montagnard » (c'est nous qui offrons) : si vous êtes d'accord d'éventuellement partager une chambre avec des amis ou en famille, nous mettons des lits à disposition dans de grands chalets (<a class=""link"" target=""_blank"" href=""resources/img/stanza.jpg"">exemple</a>).

2. Option « grand luxe » (c'est vous qui payez <span>&#9786;</span> ) : pour plus d’intimité et de confort, vous pouvez réserver personnellement une chambre à l’hôtel des Mosses par exemple : http://www.relaisalpin.ch/ra/fr/

Plus de détails et d’informations sur ce site dans les prochains mois.

Merci de nous rendre réponse à travers le lien <a class=""link"" href=""./rsvp.html"">RSVP</a> (si possible d'ici au 31 mars)."
language-switcher,"Je parle français","Parlo italiano"
nav-home,Home,Home
nav-rsvp,"RSVP (fino al 31/3)","RSVP (jusqu'au 31/3)"
nav-info,Info,Info
nav-photos,Foto,Photos
nav-gifts,"",""
nav-agenda,Programma,Programme
nav-trip,Viaggio,Voyage
please-join-entry,"Siamo lieti di annunciare il nostro matrimonio in data","Nous sommes heureux d'annoncer notre union"
wedding-date-home,"1 Settembre 2018","1<sup>er</sup> Septembre 2018"
you-are-invited,"Siete invitati!","Vous êtes invités!"
